200.000000 13.428602
220.000000 11.162374
240.000000 9.353399
260.000000 7.897707
280.000000 6.693705
300.000000 5.679674
320.000000 4.834353
340.000000 4.136823
360.000000 3.550926
380.000000 3.058624
400.000000 2.645980
420.000000 2.285375
440.000000 1.984632
460.000000 1.727395
480.000000 1.505976
500.000000 1.317521
550.000000 0.951472
600.000000 0.698244
650.000000 0.517740
700.000000 0.386794
750.000000 0.292920
800.000000 0.223263
850.000000 0.171720
900.000000 0.133184
950.000000 0.103874
1000.000000 0.081649
1100.000000 0.051201
1200.000000 0.032803
1300.000000 0.021412
1400.000000 0.014176
1500.000000 0.009530
