400.000000 0.000065
420.000000 0.000052
440.000000 0.000041
450.000000 0.000037
460.000000 0.000033
480.000000 0.000027
500.000000 0.000022
520.000000 0.000018
540.000000 0.000015
550.000000 0.000014
560.000000 0.000013
580.000000 0.000011
600.000000 0.000009
650.000000 0.000006
700.000000 0.000004
750.000000 0.000003
800.000000 0.000002
850.000000 0.000001
900.000000 0.000001
950.000000 0.000001
1000.000000 0.000001
