400.000000 0.000808
420.000000 0.000820
440.000000 0.000791
450.000000 0.000767
460.000000 0.000739
480.000000 0.000675
500.000000 0.000602
600.000000 0.000458
700.000000 0.000290
800.000000 0.000177
900.000000 0.000125
1000.000000 0.000071
