400.000000 0.041415
420.000000 0.041321
440.000000 0.038341
450.000000 0.036379
460.000000 0.034293
480.000000 0.030070
500.000000 0.026079
520.000000 0.022484
540.000000 0.019330
550.000000 0.017915
560.000000 0.016602
580.000000 0.014264
600.000000 0.012269
650.000000 0.008486
700.000000 0.005954
750.000000 0.004245
800.000000 0.003076
850.000000 0.002266
900.000000 0.001696
950.000000 0.001290
1000.000000 0.000998
