400.000000 0.000466
420.000000 0.000372
440.000000 0.000300
450.000000 0.000269
460.000000 0.000243
480.000000 0.000198
500.000000 0.000163
520.000000 0.000134
540.000000 0.000112
550.000000 0.000102
560.000000 0.000093
580.000000 0.000078
600.000000 0.000066
650.000000 0.000044
700.000000 0.000030
750.000000 0.000021
800.000000 0.000015
850.000000 0.000011
900.000000 0.000008
950.000000 0.000006
1000.000000 0.000005
