400.000000 0.001041
420.000000 0.000827
440.000000 0.000663
450.000000 0.000595
460.000000 0.000535
480.000000 0.000435
500.000000 0.000356
520.000000 0.000293
540.000000 0.000243
550.000000 0.000221
560.000000 0.000202
580.000000 0.000169
600.000000 0.000142
650.000000 0.000094
700.000000 0.000064
750.000000 0.000044
800.000000 0.000031
850.000000 0.000023
900.000000 0.000017
950.000000 0.000012
1000.000000 0.000009
