400.000000 0.016496
420.000000 0.013126
440.000000 0.010525
450.000000 0.009451
460.000000 0.008502
480.000000 0.006916
500.000000 0.005661
520.000000 0.004662
540.000000 0.003861
550.000000 0.003521
560.000000 0.003215
580.000000 0.002690
600.000000 0.002262
650.000000 0.001495
700.000000 0.001014
750.000000 0.000703
800.000000 0.000498
850.000000 0.000359
900.000000 0.000264
950.000000 0.000197
1000.000000 0.000150
