200.000000 335.715057
220.000000 279.059326
240.000000 233.834976
260.000000 197.442673
280.000000 167.342621
300.000000 141.991837
320.000000 120.858818
340.000000 103.420578
360.000000 88.773163
380.000000 76.465607
400.000000 66.149490
420.000000 57.134377
440.000000 49.615807
460.000000 43.184879
480.000000 37.649410
500.000000 32.938023
550.000000 23.786806
600.000000 17.456091
650.000000 12.943507
700.000000 9.669858
750.000000 7.322996
800.000000 5.581572
850.000000 4.293012
900.000000 3.329590
950.000000 2.596862
1000.000000 2.041233
1100.000000 1.280036
1200.000000 0.820087
1300.000000 0.535307
1400.000000 0.354412
1500.000000 0.238246
