400.000000 0.004923
420.000000 0.004523
440.000000 0.004118
450.000000 0.003914
460.000000 0.003711
480.000000 0.003303
500.000000 0.002894
600.000000 0.002102
700.000000 0.001308
800.000000 0.000791
900.000000 0.000553
1000.000000 0.000315
