400.000000 0.000243
420.000000 0.000223
440.000000 0.000203
450.000000 0.000193
460.000000 0.000183
480.000000 0.000163
500.000000 0.000143
600.000000 0.000104
700.000000 0.000065
800.000000 0.000039
900.000000 0.000027
1000.000000 0.000016
