400.000000 0.000548
420.000000 0.000503
440.000000 0.000458
450.000000 0.000435
460.000000 0.000412
480.000000 0.000367
500.000000 0.000322
600.000000 0.000233
700.000000 0.000145
800.000000 0.000088
900.000000 0.000061
1000.000000 0.000035
