400.000000 0.493823
420.000000 0.453099
440.000000 0.412275
450.000000 0.391839
460.000000 0.371391
480.000000 0.330468
500.000000 0.289516
600.000000 0.210213
700.000000 0.130783
800.000000 0.079144
900.000000 0.055337
1000.000000 0.031519
