400.000000 0.000117
420.000000 0.000093
440.000000 0.000075
450.000000 0.000067
460.000000 0.000061
480.000000 0.000050
500.000000 0.000041
520.000000 0.000034
540.000000 0.000028
550.000000 0.000025
560.000000 0.000023
580.000000 0.000020
600.000000 0.000017
650.000000 0.000011
700.000000 0.000008
750.000000 0.000005
800.000000 0.000004
850.000000 0.000003
900.000000 0.000002
950.000000 0.000002
1000.000000 0.000001
